0th cross_entropy: 8.749428 accuracy: 0.5188679
1th cross_entropy: 9.015538 accuracy: 0.495283
2th cross_entropy: 8.38666 accuracy: 0.6273585
3th cross_entropy: 8.339637 accuracy: 0.6226415
4th cross_entropy: 8.302805 accuracy: 0.5990566
5th cross_entropy: 7.7299337 accuracy: 0.6084906
6th cross_entropy: 5.5779166 accuracy: 0.6226415
7th cross_entropy: 2.386723 accuracy: 0.6226415
8th cross_entropy: 0.58790255 accuracy: 0.7264151
9th cross_entropy: 0.6198646 accuracy: 0.75
10th cross_entropy: 0.54988295 accuracy: 0.7028302
11th cross_entropy: 0.7929921 accuracy: 0.6320755
12th cross_entropy: 0.46080676 accuracy: 0.7264151
13th cross_entropy: 0.2816405 accuracy: 0.9009434
14th cross_entropy: 0.26415306 accuracy: 0.9292453
15th cross_entropy: 0.25536913 accuracy: 0.8915094
16th cross_entropy: 0.32995975 accuracy: 0.8396226
17th cross_entropy: 0.31238168 accuracy: 0.8537736
18th cross_entropy: 0.21009305 accuracy: 0.9103774
19th cross_entropy: 0.16525513 accuracy: 0.9575472
20th cross_entropy: 0.14881293 accuracy: 0.9669811
21th cross_entropy: 0.15237325 accuracy: 0.9386792
22th cross_entropy: 0.1445424 accuracy: 0.9433962
23th cross_entropy: 0.119102076 accuracy: 0.9669811
24th cross_entropy: 0.09456476 accuracy: 0.9764151
25th cross_entropy: 0.0860584 accuracy: 0.9764151
26th cross_entropy: 0.07739677 accuracy: 0.9764151
27th cross_entropy: 0.06256982 accuracy: 0.9811321
28th cross_entropy: 0.06998201 accuracy: 0.9764151
29th cross_entropy: 0.06439625 accuracy: 0.9858491
30th cross_entropy: 0.10085192 accuracy: 0.9764151
31th cross_entropy: 0.09153761 accuracy: 0.9764151
32th cross_entropy: 0.0500889 accuracy: 0.990566
33th cross_entropy: 0.045955025 accuracy: 0.9858491
34th cross_entropy: 0.045876052 accuracy: 0.9858491
35th cross_entropy: 0.049527545 accuracy: 0.990566
36th cross_entropy: 0.04278899 accuracy: 0.990566
37th cross_entropy: 0.04357239 accuracy: 0.990566
38th cross_entropy: 0.068206385 accuracy: 0.9811321
39th cross_entropy: 0.08015059 accuracy: 0.9811321
40th cross_entropy: 0.078512445 accuracy: 0.9811321
41th cross_entropy: 0.06487936 accuracy: 0.9811321
42th cross_entropy: 0.059460863 accuracy: 0.9811321
43th cross_entropy: 0.05507792 accuracy: 0.9858491
44th cross_entropy: 0.03762892 accuracy: 0.995283
45th cross_entropy: 0.036872122 accuracy: 0.995283
46th cross_entropy: 0.036507886 accuracy: 0.995283
47th cross_entropy: 0.036236607 accuracy: 0.995283
48th cross_entropy: 0.03601947 accuracy: 0.995283
49th cross_entropy: 0.03831938 accuracy: 0.995283
50th cross_entropy: 0.036090408 accuracy: 0.995283
51th cross_entropy: 0.036543686 accuracy: 0.995283
52th cross_entropy: 0.038084336 accuracy: 0.995283
53th cross_entropy: 0.038308453 accuracy: 0.990566
54th cross_entropy: 0.03830344 accuracy: 0.990566
55th cross_entropy: 0.038051516 accuracy: 0.990566
56th cross_entropy: 0.037642002 accuracy: 0.990566
57th cross_entropy: 0.03719048 accuracy: 0.995283
58th cross_entropy: 0.036773264 accuracy: 0.995283
59th cross_entropy: 0.036400083 accuracy: 0.995283
60th cross_entropy: 0.036078908 accuracy: 0.995283
61th cross_entropy: 0.035785757 accuracy: 0.995283
62th cross_entropy: 0.035528287 accuracy: 0.995283
63th cross_entropy: 0.03535205 accuracy: 0.995283
64th cross_entropy: 0.03524387 accuracy: 0.995283
65th cross_entropy: 0.035103552 accuracy: 0.995283
66th cross_entropy: 0.034987945 accuracy: 0.995283
67th cross_entropy: 0.034934405 accuracy: 0.995283
68th cross_entropy: 0.034921683 accuracy: 0.995283
69th cross_entropy: 0.034915563 accuracy: 0.995283
70th cross_entropy: 0.034902103 accuracy: 0.995283
71th cross_entropy: 0.03488042 accuracy: 0.995283
72th cross_entropy: 0.03485303 accuracy: 0.995283
73th cross_entropy: 0.034822203 accuracy: 0.995283
74th cross_entropy: 0.034789883 accuracy: 0.995283
75th cross_entropy: 0.03475793 accuracy: 0.995283
76th cross_entropy: 0.03472781 accuracy: 0.995283
77th cross_entropy: 0.034700215 accuracy: 0.995283
78th cross_entropy: 0.034675557 accuracy: 0.995283
79th cross_entropy: 0.034654014 accuracy: 0.995283
80th cross_entropy: 0.034635656 accuracy: 0.995283
81th cross_entropy: 0.034620482 accuracy: 0.995283
82th cross_entropy: 0.034608368 accuracy: 0.995283
83th cross_entropy: 0.03459909 accuracy: 0.995283
84th cross_entropy: 0.034592442 accuracy: 0.995283
85th cross_entropy: 0.03458811 accuracy: 0.995283
86th cross_entropy: 0.03458589 accuracy: 0.995283
87th cross_entropy: 0.034585636 accuracy: 0.995283
88th cross_entropy: 0.03458729 accuracy: 0.995283
89th cross_entropy: 0.034590583 accuracy: 0.995283
90th cross_entropy: 0.03459542 accuracy: 0.995283
91th cross_entropy: 0.034601707 accuracy: 0.995283
92th cross_entropy: 0.034609336 accuracy: 0.995283
93th cross_entropy: 0.03461821 accuracy: 0.995283
94th cross_entropy: 0.034628235 accuracy: 0.995283
95th cross_entropy: 0.034639332 accuracy: 0.995283
96th cross_entropy: 0.03465145 accuracy: 0.995283
97th cross_entropy: 0.03466453 accuracy: 0.995283
98th cross_entropy: 0.034678478 accuracy: 0.995283
99th cross_entropy: 0.034693275 accuracy: 0.995283